EDA Process – today
…
Code

# Check missing values per column in all datasets
df_list <- list(
  df_covid19 = df_covid19, 
  df_gdp = df_gdp,
  df_pop = df_pop,
  df_covid19_response = df_covid19_response,
  df_vaccine = df_vaccine
)

lapply(df_list, countNA)  # Custom function to count NAs

# A tibble: 22 × 3
   col              NAs NA_perc
   <chr>          <int>   <dbl>
 1 ...1               0    0   
 2 date               0    0   
 3 state              0    0   
 4 country_region     0    0   
 5 last_update       19    0.08
 6 lat              874    3.52
 7 long             874    3.52
 8 confirmed          0    0   
 9 deaths             0    0   
10 recovered       9720   39.1 
# ℹ 12 more rows
…
Code

# Observation from total number of cases on state and national level: All data regarding covid-19 infections are reported as running total."confirmed" and "deaths"  cases seem to be reported consistently, however, there are missing data and in some parts a drop of reported data in "recovered" and "active" cases.

# Step 1: Get a list of us state names:
states_list <- tibble(state_base = datasets::state.name)

## do state names matching with function in funcs.R
states_list_covid19 <- matchStates(data = df_covid19, 
                                   col_name = "state_covid19")

# A tibble: 50 × 2
   states_base state_covid19
   <fct>       <fct>        
 1 Alabama     Alabama      
 2 Alaska      Alaska       
 3 Arizona     Arizona      
 4 Arkansas    Arkansas     
 5 California  California   
 6 Colorado    Colorado     
 7 Connecticut Connecticut  
 8 Delaware    Delaware     
 9 Florida     Florida      
10 Georgia     Georgia      
# ℹ 40 more rows

Code

states_list_gdp <- matchStates(data = df_covid19,
                                   col_name = "state_gdp")

# A tibble: 50 × 2
   states_base state_gdp  
   <fct>       <fct>      
 1 Alabama     Alabama    
 2 Alaska      Alaska     
 3 Arizona     Arizona    
 4 Arkansas    Arkansas   
 5 California  California 
 6 Colorado    Colorado   
 7 Connecticut Connecticut
 8 Delaware    Delaware   
 9 Florida     Florida    
10 Georgia     Georgia    
# ℹ 40 more rows

Code

states_list_pop <- matchStates(data = df_covid19,
                                   col_name = "state_pop")

# A tibble: 50 × 2
   states_base state_pop  
   <fct>       <fct>      
 1 Alabama     Alabama    
 2 Alaska      Alaska     
 3 Arizona     Arizona    
 4 Arkansas    Arkansas   
 5 California  California 
 6 Colorado    Colorado   
 7 Connecticut Connecticut
 8 Delaware    Delaware   
 9 Florida     Florida    
10 Georgia     Georgia    
# ℹ 40 more rows

Code

states_list_covid19_response <- matchStates(data = df_covid19,
                                            col_name =
                                          "state_covid19_response")

# A tibble: 50 × 2
   states_base state_covid19_response
   <fct>       <fct>                 
 1 Alabama     Alabama               
 2 Alaska      Alaska                
 3 Arizona     Arizona               
 4 Arkansas    Arkansas              
 5 California  California            
 6 Colorado    Colorado              
 7 Connecticut Connecticut           
 8 Delaware    Delaware              
 9 Florida     Florida               
10 Georgia     Georgia               
# ℹ 40 more rows

Code

states_list_vaccine <- matchStates(data = df_covid19,
                                   col_name = "state_vaccine")

# A tibble: 50 × 2
   states_base state_vaccine
   <fct>       <fct>        
 1 Alabama     Alabama      
 2 Alaska      Alaska       
 3 Arizona     Arizona      
 4 Arkansas    Arkansas     
 5 California  California   
 6 Colorado    Colorado     
 7 Connecticut Connecticut  
 8 Delaware    Delaware     
 9 Florida     Florida      
10 Georgia     Georgia      
# ℹ 40 more rows
…
